{
  "project_info": {
    "project_number": "758638902274",
    "firebase_url": "https://learnto-ca172.firebaseio.com",
    "project_id": "learnto-ca172",
    "storage_bucket": "learnto-ca172.appspot.com"
  },
  "client": [
    {
      "client_info": {
        "mobilesdk_app_id": "1:758638902274:android:e8afe87836490b52",
        "android_client_info": {
          "package_name": "com.example.time_fighter"
        }
      },
      "oauth_client": [
        {
          "client_id": "758638902274-4a641ardlpd2fk1t7ueo3onrt37rk9f9.apps.googleusercontent.com",
          "client_type": 3
        }
      ],
      "api_key": [
        {
          "current_key": "AIzaSyDkXg7N1O4MLSA3J_zJHGeAa_4TJtaJKmY"
        }
      ],
      "services": {
        "appinvite_service": {
          "other_platform_oauth_client": [
            {
              "client_id": "758638902274-4a641ardlpd2fk1t7ueo3onrt37rk9f9.apps.googleusercontent.com",
              "client_type": 3
            }
          ]
        }
      }
    }
  ],
  "configuration_version": "1"
}